…
``` bash
time cargo test --release
```

Check the output:

``` r
sf::read_sf("points.geojson")
#> Simple feature collection with 100000 features and 0 fields
#> Geometry type: POINT
#> Dimension:     XY
#> Bounding box:  xmin: -4.426115 ymin: -4.581759 xmax: 4.28053 ymax: 4.358714
#> Geodetic CRS:  WGS 84
#> # A tibble: 100,000 × 1
#>                   geometry
#>                <POINT [°]>
#>  1   (-0.183681 0.3248124)
#>  2    (-2.24645 -0.553099)
#>  3  (-0.5932318 0.3407814)
#>  4  (-0.2102984 0.6505756)
#>  5 (-0.9501803 0.08423856)
#>  6   (0.1042869 -1.845679)
#>  7   (-2.037787 -1.900653)
#>  8   (0.7674608 0.9088685)
#>  9  (-0.3537348 0.8850982)
#> 10   (0.1912675 -1.416043)
#> # … with 99,990 more rows
sf::read_sf("points_rust.geojson")
#> Simple feature collection with 100000 features and 0 fields
#> Geometry type: POINT
#> Dimension:     XY
#> Bounding box:  xmin: -4.426115 ymin: -4.581759 xmax: 4.28053 ymax: 4.358714
#> Geodetic CRS:  WGS 84
#> # A tibble: 100,000 × 1
#>                   geometry
#>                <POINT [°]>
#>  1   (-0.183681 0.3248124)
#>  2    (-2.24645 -0.553099)
#>  3  (-0.5932318 0.3407814)
#>  4  (-0.2102984 0.6505756)
#>  5 (-0.9501803 0.08423856)
#>  6   (0.1042869 -1.845679)
#>  7   (-2.037787 -1.900653)
#>  8   (0.7674608 0.9088685)
#>  9  (-0.3537348 0.8850982)
#> 10   (0.1912675 -1.416043)
#> # … with 99,990 more rows
```
…
